0.0,5
1e-05,10
2e-05,16
3e-05,34
4e-05,80
5e-05,170
6e-05,262
7e-05,344
8e-05,425
9e-05,501
0.0001,576
0.00011,649
0.00012,719
0.00013,789
0.00014,857
0.00015,927
0.00016,990
0.00017,1055
0.00018,1112
0.00019,1177
0.0002,1235
0.00021,1295
0.00022,1352
0.00023,1408
0.00024,1461
0.00025,1516
0.00026,1567
0.00027,1619
0.00028,1669
0.00029,1717
0.0003,1765
0.00031,1812
0.00032,1859
0.00033,1903
0.00034,1948
0.00035,1991
0.00036,2034
0.00037,2075
0.00038,2117
0.00039,2156
0.0004,2196
0.00041,2231
0.00042,2270
0.00043,2307
0.00044,2342
0.00045,2378
0.00046,2411
0.00047,2446
0.00048,2479
0.00049,2511
0.0005,2543
0.00051,2574
0.00052,2605
0.00053,2636
0.00054,2662
0.00055,2692
0.00056,2717
0.0005699999,2745
0.00058,2773
0.0005900001,2799
0.0006,2826
0.0006099999,2850
0.00062,2875
0.00063,2898
0.00064,2921
0.00065,2946
0.0006599999,2967
0.00067,2989
0.0006799999,3012
0.00069,3033
0.0007,3054
0.00071,3073
0.00072,3095
0.0007300001,3115
0.00074,3134
0.00075,3154
0.00076,3178
0.00077,3189
0.00078,3208
0.00079,3224
0.0008,3243
0.00081,3260
0.0008200001,3276
0.00083,3292
0.00084,3306
0.00085,3324
0.0008599999,3340
0.00087,3354
0.00088,3369
0.00089,3379
0.0009,3397
0.0009099999,3410
0.00092,3426
0.0009299999,3438
0.00094,3448
0.00095,3465
0.00096,3475
0.0009700001,3489
0.00098,3500
0.00099,3513
0.001,3525
0.00101,3535
0.00102,3548
0.00103,3555
0.00104,3567
0.00105,3579
0.00106,3588
0.00107,3597
0.00108,3608
0.00109,3616
0.0011,3626
0.00111,3635
0.00112,3644
0.00113,3655
0.00114,3663
0.00115,3671
0.00116,3677
0.00117,3688
0.00118,3695
0.00119,3701
0.0012,3709
0.00121,3717
0.00122,3726
0.00123,3733
0.00124,3738
0.00125,3748
0.00126,3753
0.00127,3759
0.00128,3767
0.00129,3771
0.0013,3777
0.00131,3786
0.00132,3791
0.00133,3798
0.00134,3803
0.00135,3807
0.00136,3815
0.00137,3818
0.00138,3826
0.00139,3829
0.0014,3835
0.00141,3835
0.00142,3845
0.00143,3850
0.00144,3855
0.00145,3858
0.00146,3862
0.00147,3869
0.00148,3871
0.00149,3878
0.0015,3881
0.00151,3884
0.00152,3890
0.00153,3894
0.00154,3897
0.00155,3901
0.00156,3905
0.00157,3908
0.00158,3911
0.00159,3915
0.0016,3921
0.00161,3922
0.00162,3925
0.00163,3928
0.00164,3933
0.00165,3935
0.00166,3938
0.00167,3941
0.00168,3944
0.00169,3944
0.0017,3951
0.00171,3949
0.00172,3955
0.00173,3959
0.00174,3959
0.00175,3961
0.00176,3964
0.00177,3965
0.00178,3971
0.00179,3971
0.0018,3976
0.00181,3978
0.00182,3977
0.00183,3976
0.00184,3983
0.00185,3983
0.00186,3991
0.00187,3989
0.00188,3989
0.00189,3994
0.0019,3994
0.00191,3998
0.00192,3995
