0.0,6
1e-05,29
2e-05,35
3e-05,33
4e-05,36
5e-05,40
6e-05,52
7e-05,203
8e-05,289
9e-05,368
0.0001,450
0.00011,524
0.00012,598
0.00013,671
0.00014,743
0.00015,813
0.00016,877
0.00017,942
0.00018,1007
0.00019,1071
0.0002,1132
0.00021,1195
0.00022,1249
0.00023,1311
0.00024,1367
0.00025,1423
0.00026,1477
0.00027,1530
0.00028,1583
0.00029,1632
0.0003,1679
0.00031,1731
0.00032,1779
0.00033,1825
0.00034,1871
0.00035,1912
0.00036,1961
0.00037,2003
0.00038,2043
0.00039,2086
0.0004,2126
0.00041,2165
0.00042,2207
0.00043,2244
0.00044,2280
0.00045,2315
0.00046,2350
0.00047,2387
0.00048,2420
0.00049,2454
0.0005,2487
0.00051,2519
0.00052,2551
0.00053,2582
0.00054,2613
0.00055,2639
0.00056,2671
0.0005699999,2699
0.00058,2727
0.0005900001,2753
0.0006,2779
0.0006099999,2806
0.00062,2831
0.00063,2858
0.00064,2880
0.00065,2905
0.0006599999,2927
0.00067,2950
0.0006799999,2974
0.00069,2995
0.0007,3019
0.00071,3039
0.00072,3059
0.0007300001,3082
0.00074,3100
0.00075,3119
0.00076,3141
0.00077,3158
0.00078,3177
0.00079,3195
0.0008,3211
0.00081,3231
0.0008200001,3247
0.00083,3262
0.00084,3279
0.00085,3297
0.0008599999,3310
0.00087,3327
0.00088,3341
0.00089,3358
0.0009,3374
0.0009099999,3387
0.00092,3403
0.0009299999,3414
0.00094,3423
0.00095,3439
0.00096,3453
0.0009700001,3465
0.00098,3479
0.00099,3490
0.001,3503
0.00101,3515
0.00102,3523
0.00103,3535
0.00104,3547
0.00105,3558
0.00106,3570
0.00107,3580
0.00108,3590
0.00109,3599
0.0011,3611
0.00111,3620
0.00112,3627
0.00113,3638
0.00114,3646
0.00115,3655
0.00116,3667
0.00117,3672
0.00118,3680
0.00119,3690
0.0012,3695
0.00121,3705
0.00122,3713
0.00123,3719
0.00124,3727
0.00125,3733
0.00126,3741
0.00127,3748
0.00128,3753
0.00129,3759
0.0013,3771
0.00131,3775
0.00132,3779
0.00133,3791
0.00134,3791
0.00135,3799
0.00136,3804
0.00137,3811
0.00138,3815
0.00139,3819
0.0014,3823
0.00141,3830
0.00142,3837
0.00143,3839
0.00144,3844
0.00145,3851
0.00146,3855
0.00147,3861
0.00148,3865
0.00149,3869
0.0015,3871
0.00151,3878
0.00152,3883
0.00153,3885
0.00154,3892
0.00155,3894
0.00156,3898
0.00157,3903
0.00158,3906
0.00159,3907
0.0016,3913
0.00161,3915
0.00162,3922
0.00163,3924
0.00164,3927
0.00165,3927
0.00166,3929
0.00167,3935
0.00168,3939
0.00169,3940
0.0017,3944
0.00171,3950
0.00172,3944
0.00173,3951
0.00174,3957
0.00175,3959
0.00176,3959
0.00177,3962
0.00178,3966
0.00179,3967
0.0018,3967
0.00181,3971
0.00182,3975
0.00183,3975
0.00184,3980
0.00185,3982
0.00186,3983
0.00187,3982
0.00188,3989
0.00189,3987
0.0019,3989
0.00191,3991
0.00192,3995
0.00193,3994
0.00194,3997
